<?xml version="1.0" encoding="utf-8"?>
<!-- Generated by IcoMoon.io -->
<!DOCTYPE svg PUBLIC "-//W3C//DTD SVG 1.1//EN" "http://www.w3.org/Graphics/SVG/1.1/DTD/svg11.dtd">
<svg version="1.1" xmlns="http://www.w3.org/2000/svg" width="64" height="64" viewBox="0 0 64 64">
<path d="M56 16v-8h-56v44c0 2.209 1.791 4 4 4h54c3.314 0 6-2.686 6-6v-34h-8zM52 52h-48v-40h48v40zM8 20h40v4h-40zM32 28h16v4h-16zM32 36h16v4h-16zM32 44h12v4h-12zM8 28h20v20h-20z" fill="#000000"></path>
</svg>
