<?xml version="1.0" encoding="utf-8"?>
<!-- Generated by IcoMoon.io -->
<!DOCTYPE svg PUBLIC "-//W3C//DTD SVG 1.1//EN" "http://www.w3.org/Graphics/SVG/1.1/DTD/svg11.dtd">
<svg version="1.1" xmlns="http://www.w3.org/2000/svg" width="64" height="64" viewBox="0 0 64 64">
<path d="M24 40l8-4 28-28-4-4-28 28-4 8zM18.081 54.194c-1.977-4.17-4.104-6.298-8.275-8.275l6.193-17.049 8-4.869 24-24h-12l-24 24-12 40 40-12 24-24v-12l-24 24-4.87 8z" fill="#000000"></path>
</svg>
