<?xml version="1.0" encoding="utf-8"?>
<!-- Generated by IcoMoon.io -->
<!DOCTYPE svg PUBLIC "-//W3C//DTD SVG 1.1//EN" "http://www.w3.org/Graphics/SVG/1.1/DTD/svg11.dtd">
<svg version="1.1" xmlns="http://www.w3.org/2000/svg" width="64" height="64" viewBox="0 0 64 64">
<path d="M0 52h64v8h-64zM8 36h8v12h-8zM20 20h8v28h-8zM32 32h8v16h-8zM44 8h8v40h-8z" fill="#000000"></path>
</svg>
