<?xml version="1.0" encoding="utf-8"?>
<!-- Generated by IcoMoon.io -->
<!DOCTYPE svg PUBLIC "-//W3C//DTD SVG 1.1//EN" "http://www.w3.org/Graphics/SVG/1.1/DTD/svg11.dtd">
<svg version="1.1" xmlns="http://www.w3.org/2000/svg" width="64" height="64" viewBox="0 0 64 64">
<path d="M26 6c0-3.314 2.686-6 6-6s6 2.686 6 6c0 3.314-2.686 6-6 6s-6-2.686-6-6z" fill="#000000"></path>
<path d="M40 20l20.6-8.886-1.486-3.714-25.114 8.6h-4l-25.114-8.6-1.486 3.714 20.6 8.886v16l-8.204 26.536 3.74 1.419 11.607-25.954h1.714l11.607 25.954 3.74-1.419-8.204-26.536z" fill="#000000"></path>
</svg>
