<?xml version="1.0" encoding="utf-8"?>
<!-- Generated by IcoMoon.io -->
<!DOCTYPE svg PUBLIC "-//W3C//DTD SVG 1.1//EN" "http://www.w3.org/Graphics/SVG/1.1/DTD/svg11.dtd">
<svg version="1.1" xmlns="http://www.w3.org/2000/svg" width="64" height="64" viewBox="0 0 64 64">
<path d="M46.001 28c-0.557 0-1.111-0.231-1.506-0.683l-12.495-14.28-12.495 14.28c-0.727 0.831-1.991 0.916-2.822 0.188s-0.915-1.991-0.188-2.822l14-16c0.38-0.434 0.928-0.683 1.505-0.683s1.125 0.249 1.505 0.683l14 16c0.727 0.831 0.643 2.095-0.188 2.822-0.379 0.332-0.849 0.495-1.316 0.495z" fill="#000000"></path>
</svg>
