<?xml version="1.0" encoding="utf-8"?>
<!-- Generated by IcoMoon.io -->
<!DOCTYPE svg PUBLIC "-//W3C//DTD SVG 1.1//EN" "http://www.w3.org/Graphics/SVG/1.1/DTD/svg11.dtd">
<svg version="1.1" xmlns="http://www.w3.org/2000/svg" width="64" height="64" viewBox="0 0 64 64">
<path d="M52 16l12-12-4-4-12 12h-28v-12h-8v12h-12v8h12v32h32v12h8v-12h12v-8h-12v-28zM20 20h20l-20 20v-20zM24 44l20-20v20h-20z" fill="#000000"></path>
</svg>
