<?xml version="1.0" encoding="utf-8"?>
<!-- Generated by IcoMoon.io -->
<!DOCTYPE svg PUBLIC "-//W3C//DTD SVG 1.1//EN" "http://www.w3.org/Graphics/SVG/1.1/DTD/svg11.dtd">
<svg version="1.1" xmlns="http://www.w3.org/2000/svg" width="64" height="64" viewBox="0 0 64 64">
<path d="M16 56v8l-12-10 12-10v8h32v-8l12 10-12 10v-8zM52 4v16l-4-8h-12v28h8v4h-24v-4h8v-28h-12l-4 8v-16z" fill="#000000"></path>
</svg>
