<?xml version="1.0" encoding="utf-8"?>
<!-- Generated by IcoMoon.io -->
<!DOCTYPE svg PUBLIC "-//W3C//DTD SVG 1.1//EN" "http://www.w3.org/Graphics/SVG/1.1/DTD/svg11.dtd">
<svg version="1.1" xmlns="http://www.w3.org/2000/svg" width="64" height="64" viewBox="0 0 64 64">
<path d="M48 56.875v3.125h8v4h-12v-9.125l8-3.75v-3.125h-8v-4h12v9.125zM42.25 16h-8.5l-11.75 11.75-11.75-11.75h-8.5l16 16-16 16h8.5l11.75-11.75 11.75 11.75h8.5l-16-16z" fill="#000000"></path>
</svg>
