<?xml version="1.0" encoding="utf-8"?>
<!-- Generated by IcoMoon.io -->
<!DOCTYPE svg PUBLIC "-//W3C//DTD SVG 1.1//EN" "http://www.w3.org/Graphics/SVG/1.1/DTD/svg11.dtd">
<svg version="1.1" xmlns="http://www.w3.org/2000/svg" width="64" height="64" viewBox="0 0 64 64">
<path d="M16 24v-24h48v24h-4v-20h-40v20zM64 36v28h-48v-28h4v24h40v-24zM32 28h8v4h-8zM20 28h8v4h-8zM44 28h8v4h-8zM56 28h8v4h-8zM0 18l12 12-12 12z" fill="#000000"></path>
</svg>
