<?xml version="1.0" encoding="utf-8"?>
<!-- Generated by IcoMoon.io -->
<!DOCTYPE svg PUBLIC "-//W3C//DTD SVG 1.1//EN" "http://www.w3.org/Graphics/SVG/1.1/DTD/svg11.dtd">
<svg version="1.1" xmlns="http://www.w3.org/2000/svg" width="64" height="64" viewBox="0 0 64 64">
<path d="M24 0h32v8h-8v56h-8v-56h-8v56h-8v-32c-8.836 0-16-7.163-16-16s7.163-16 16-16z" fill="#000000"></path>
</svg>
