<?xml version="1.0" encoding="utf-8"?>
<!-- Generated by IcoMoon.io -->
<!DOCTYPE svg PUBLIC "-//W3C//DTD SVG 1.1//EN" "http://www.w3.org/Graphics/SVG/1.1/DTD/svg11.dtd">
<svg version="1.1" xmlns="http://www.w3.org/2000/svg" width="64" height="64" viewBox="0 0 64 64">
<path d="M32 0c-17.673 0-32 14.327-32 32s14.327 32 32 32v-24h-8v-8h8v-6c0-5.523 4.477-10 10-10h10v8h-10c-1.105 0-2 0.895-2 2v6h11l-2 8h-9v22.992c13.802-3.552 24-16.081 24-30.992 0-17.673-14.327-32-32-32z" fill="#000000"></path>
</svg>
